[
    {
        "label": "Baseball",
        "value": "baseball",
        "icon": "fas fa-baseball-ball"
    },
    {
        "label": "Basket",
        "value": "basket",
        "icon": "fas fa-basketball-ball"
    },
    {
        "label": "Bike",
        "value": "bike",
        "icon": "fas fa-biking"
    },
    {
        "label": "Bowling",
        "value": "bowling",
        "icon": "fas fa-bowling-ball"
    },
    {
        "label": "Nordic Skiing",
        "value": "nordic-skiing",
        "icon": "fas fa-skiing-nordic"
    },
    {
        "label": "Football",
        "value": "football",
        "icon": "fas fa-futbol"
    },
    {
        "label": "Golf",
        "value": "golf",
        "icon": "fas fa-golf-ball"
    },
    {
        "label": "Gym",
        "value": "gym",
        "icon": "fas fa-dumbbell"
    },
    {
        "label": "Hockey",
        "value": "hockey",
        "icon": "fas fa-hockey-puck"
    },
    {
        "label": "Rugby",
        "value": "rugby",
        "icon": "fas fa-football-ball"
    },
    {
        "label": "Running",
        "value": "running",
        "icon": "fas fa-running"
    },
    {
        "label": "Skating",
        "value": "skating",
        "icon": "fas fa-skating"
    },
    {
        "label": "Skiing",
        "value": "Skiing",
        "icon": "fas fa-skiing"
    },
    {
        "label": "Snowboard",
        "value": "snowboard",
        "icon": "fas fa-snowboarding"
    },
    {
        "label": "Swim",
        "value": "swim",
        "icon": "fas fa-swimmer"
    },
    {
        "label": "Table Tennis",
        "value": "table-tennis",
        "icon": "fas fa-table-tennis"
    },
    {
        "label": "Volleyball",
        "value": "volleyball",
        "icon": "fas fa-volleyball-ball"
    }
]